%YAML 1.1
%TAG !u! tag:unity3d.com,2011:
--- !u!1001 &2352085684642489388
PrefabInstance:
  m_ObjectHideFlags: 0
  serializedVersion: 2
  m_Modification:
    m_TransformParent: {fileID: 0}
    m_Modifications:
    - target: {fileID: 8857232551606060453, guid: 22ade963a8367425da3768d03789c680,
        type: 3}
      propertyPath: m_Name
      value: RedExplosion
      objectReference: {fileID: 0}
    - target: {fileID: 8066664404209957030, guid: 22ade963a8367425da3768d03789c680,
        type: 3}
      propertyPath: m_LocalPosition.x
      value: 0
      objectReference: {fileID: 0}
    - target: {fileID: 8066664404209957030, guid: 22ade963a8367425da3768d03789c680,
        type: 3}
      propertyPath: m_LocalPosition.y
      value: 0
      objectReference: {fileID: 0}
    - target: {fileID: 8066664404209957030, guid: 22ade963a8367425da3768d03789c680,
        type: 3}
      propertyPath: m_LocalPosition.z
      value: 0
      objectReference: {fileID: 0}
    - target: {fileID: 8066664404209957030, guid: 22ade963a8367425da3768d03789c680,
        type: 3}
      propertyPath: m_LocalRotation.x
      value: 0
      objectReference: {fileID: 0}
    - target: {fileID: 8066664404209957030, guid: 22ade963a8367425da3768d03789c680,
        type: 3}
      propertyPath: m_LocalRotation.y
      value: 0
      objectReference: {fileID: 0}
    - target: {fileID: 8066664404209957030, guid: 22ade963a8367425da3768d03789c680,
        type: 3}
      propertyPath: m_LocalRotation.z
      value: 0
      objectReference: {fileID: 0}
    - target: {fileID: 8066664404209957030, guid: 22ade963a8367425da3768d03789c680,
        type: 3}
      propertyPath: m_LocalRotation.w
      value: 1
      objectReference: {fileID: 0}
    - target: {fileID: 8066664404209957030, guid: 22ade963a8367425da3768d03789c680,
        type: 3}
      propertyPath: m_RootOrder
      value: 0
      objectReference: {fileID: 0}
    - target: {fileID: 8066664404209957030, guid: 22ade963a8367425da3768d03789c680,
        type: 3}
      propertyPath: m_LocalEulerAnglesHint.x
      value: 0
      objectReference: {fileID: 0}
    - target: {fileID: 8066664404209957030, guid: 22ade963a8367425da3768d03789c680,
        type: 3}
      propertyPath: m_LocalEulerAnglesHint.y
      value: 0
      objectReference: {fileID: 0}
    - target: {fileID: 8066664404209957030, guid: 22ade963a8367425da3768d03789c680,
        type: 3}
      propertyPath: m_LocalEulerAnglesHint.z
      value: 0
      objectReference: {fileID: 0}
    - target: {fileID: 8953163740947875964, guid: 22ade963a8367425da3768d03789c680,
        type: 3}
      propertyPath: LightsModule.light
      value: 
      objectReference: {fileID: 0}
    - target: {fileID: 8953163740947875964, guid: 22ade963a8367425da3768d03789c680,
        type: 3}
      propertyPath: InitialModule.startColor.maxColor.r
      value: 1
      objectReference: {fileID: 0}
    - target: {fileID: 8953163740947875964, guid: 22ade963a8367425da3768d03789c680,
        type: 3}
      propertyPath: InitialModule.startColor.maxColor.g
      value: 0.28627455
      objectReference: {fileID: 0}
    - target: {fileID: 8953163740947875964, guid: 22ade963a8367425da3768d03789c680,
        type: 3}
      propertyPath: InitialModule.startColor.maxColor.b
      value: 0.29957196
      objectReference: {fileID: 0}
    m_RemovedComponents: []
  m_SourcePrefab: {fileID: 100100000, guid: 22ade963a8367425da3768d03789c680, type: 3}
